ID,QUESTION,ANSWER1,ANSWER2,ANSWER3,ANSWER4,CORRECT_ANSWER
1,W którym roku odbyła się bitwa pod Grunwaldem?,1410 r.,1510 r.,1800 r.,2000 r.,1
2,Która sławna modelka zagrała w filmie 'Nagi instynkt'?,Claudia Shiffer,Sharon Stone,Monica Belucci,Pamela Anderson,2
3,Jak miała na imię śpiąca królewna?,Aurora,Nemesis,Mulan,Arielka,1
4,W jakim mieście usłyszymy Hejnał Mariacki?,W Krakowie,W Poznaniu,W Warszawie,W Katowicach,1
5,Ile prac musiał wykonać Herakles?,12,20,15,8,1
6,Szkarlatyna to inaczej:,płotnica,koklusz,grypa,malaria,1
7,Wieniec na głowie starożytnych Greków symboluzujący zwycięstwo to:,laufer,laurka,laurencja,laur,4
8,W pobliżu jakiego miasta znajduje się Puszcza Kampinoska?,Kalisza,Warszawy,Augustowa,Wrocławia,2
9,Samba to:,Cytrus,Wąż,Taniec,Marka samochodów,3
10,10 złotych to:, 10 000 groszy, 100 000 groszy, 1 000 groszy, 100 groszy,3