ID,QUESTION,ANSWER1,ANSWER2,ANSWER3,ANSWER4,CORRECT_ANSWER
1,Ile osób liczy drużyna piłkarska znajdująca się na boisku?,11,6,8,10,1
2,Jaki kolor otrzymamy z połączenia niebieskiego i żółtego?,błękitny,granatowy,zielony,pomarańczowy,3
3,Do kogo Kaczka Dziwaczka chodziła kupować znaczki pocztowe?,Do praczki,Do krawcowej,Na pocztę,Do mleczarki,1
4,Kim był Sindbad z 'Baśni tysiąca i jednej nocy'?,błaznem,sułtanem,czarownikiem,kupcem,4
5,Ostatnia ławka w klasie szkolnej w której sadzano najgorszych uczniów to:,ośla ławka,zajęcza ławka,kozia ławka,barania ławka,1
6,W którym kraju obowiązuje lewostronny ruch drogowy?,W Czechach,W Wielkiej Brytani,W Belgii,Na Węgrzech,2
7,Solowa pieść operowa z akompaniamentem orkiestry to:,oratorium,aria,preludium,fuga,2
8,Cienki papier powleczony z jednej strony farbą służący do odbijania pisna to:,kalka,celofan,bumaga,welin,1
9,Tradycyjne pieśni śpiewane w okresie Bożego Narodzenia nazywamy:,Gorzkimi żalami,Nieszporami,Psalmami,Kolędami,4
10,Flanka to w terminologii wojskowej:,skrzydło,centrum,tyły,czoło,1